{
    "ansible_facts": {
        "ansible_all_ipv4_addresses": [
            "10.10.2.3"
        ],
        "ansible_all_ipv6_addresses": [],
        "ansible_apparmor": {
            "status": "disabled"
        },
        "ansible_architecture": "x86_64",
        "ansible_bios_date": "04/01/2014",
        "ansible_bios_vendor": "SeaBIOS",
        "ansible_bios_version": "1.13.0-1ubuntu1.1",
        "ansible_board_asset_tag": "NA",
        "ansible_board_name": "NA",
        "ansible_board_serial": "NA",
        "ansible_board_vendor": "NA",
        "ansible_board_version": "NA",
        "ansible_chassis_asset_tag": "NA",
        "ansible_chassis_serial": "NA",
        "ansible_chassis_vendor": "QEMU",
        "ansible_chassis_version": "pc-i440fx-focal",
        "ansible_cmdline": {
            "BOOT_IMAGE": "/boot/vmlinuz-5.4.0-109-generic",
            "console": "ttyS0",
            "ro": true,
            "root": "UUID=b89171ea-1bed-49e0-a6cb-ca7c6195d8b8"
        },
        "ansible_date_time": {
            "date": "2022-04-25",
            "day": "25",
            "epoch": "1650870084",
            "epoch_int": "1650870084",
            "hour": "07",
            "iso8601": "2022-04-25T07:01:24Z",
            "iso8601_basic": "20220425T070124935736",
            "iso8601_basic_short": "20220425T070124",
            "iso8601_micro": "2022-04-25T07:01:24.935736Z",
            "minute": "01",
            "month": "04",
            "second": "24",
            "time": "07:01:24",
            "tz": "UTC",
            "tz_dst": "UTC",
            "tz_offset": "+0000",
            "weekday": "Monday",
            "weekday_number": "1",
            "weeknumber": "17",
            "year": "2022"
        },
        "ansible_default_ipv4": {
            "address": "10.10.2.3",
            "alias": "eth0",
            "broadcast": "10.10.2.255",
            "gateway": "10.10.2.1",
            "interface": "eth0",
            "macaddress": "02:42:0a:0a:02:03",
            "mtu": 1450,
            "netmask": "255.255.255.0",
            "network": "10.10.2.0",
            "type": "ether"
        },
        "ansible_default_ipv6": {},
        "ansible_device_links": {
            "ids": {},
            "labels": {},
            "masters": {},
            "uuids": {}
        },
        "ansible_devices": {
            "fd0": {
                "holders": [],
                "host": "",
                "links": {
                    "ids": [],
                    "labels": [],
                    "masters": [],
                    "uuids": []
                },
                "model": null,
                "partitions": {},
                "removable": "1",
                "rotational": "1",
                "sas_address": null,
                "sas_device_handle": null,
                "scheduler_mode": "mq-deadline",
                "sectors": "8",
                "sectorsize": "512",
                "size": "4.00 KB",
                "support_discard": "0",
                "vendor": null,
                "virtual": 1
            },
            "loop0": {
                "holders": [],
                "host": "",
                "links": {
                    "ids": [],
                    "labels": [],
                    "masters": [],
                    "uuids": []
                },
                "model": null,
                "partitions": {},
                "removable": "0",
                "rotational": "1",
                "sas_address": null,
                "sas_device_handle": null,
                "scheduler_mode": "mq-deadline",
                "sectors": "137712",
                "sectorsize": "512",
                "size": "67.24 MB",
                "support_discard": "4096",
                "vendor": null,
                "virtual": 1
            },
            "loop1": {
                "holders": [],
                "host": "",
                "links": {
                    "ids": [],
                    "labels": [],
                    "masters": [],
                    "uuids": []
                },
                "model": null,
                "partitions": {},
                "removable": "0",
                "rotational": "1",
                "sas_address": null,
                "sas_device_handle": null,
                "scheduler_mode": "mq-deadline",
                "sectors": "0",
                "sectorsize": "512",
                "size": "0.00 Bytes",
                "support_discard": "4096",
                "vendor": null,
                "virtual": 1
            },
            "loop2": {
                "holders": [],
                "host": "",
                "links": {
                    "ids": [],
                    "labels": [],
                    "masters": [],
                    "uuids": []
                },
                "model": null,
                "partitions": {},
                "removable": "0",
                "rotational": "1",
                "sas_address": null,
                "sas_device_handle": null,
                "scheduler_mode": "mq-deadline",
                "sectors": "126792",
                "sectorsize": "512",
                "size": "61.91 MB",
                "support_discard": "4096",
                "vendor": null,
                "virtual": 1
            },
            "loop3": {
                "holders": [],
                "host": "",
                "links": {
                    "ids": [],
                    "labels": [],
                    "masters": [],
                    "uuids": []
                },
                "model": null,
                "partitions": {},
                "removable": "0",
                "rotational": "1",
                "sas_address": null,
                "sas_device_handle": null,
                "scheduler_mode": "mq-deadline",
                "sectors": "126760",
                "sectorsize": "512",
                "size": "61.89 MB",
                "support_discard": "4096",
                "vendor": null,
                "virtual": 1
            },
            "loop4": {
                "holders": [],
                "host": "",
                "links": {
                    "ids": [],
                    "labels": [],
                    "masters": [],
                    "uuids": []
                },
                "model": null,
                "partitions": {},
                "removable": "0",
                "rotational": "1",
                "sas_address": null,
                "sas_device_handle": null,
                "scheduler_mode": "mq-deadline",
                "sectors": "91496",
                "sectorsize": "512",
                "size": "44.68 MB",
                "support_discard": "4096",
                "vendor": null,
                "virtual": 1
            },
            "loop5": {
                "holders": [],
                "host": "",
                "links": {
                    "ids": [],
                    "labels": [],
                    "masters": [],
                    "uuids": []
                },
                "model": null,
                "partitions": {},
                "removable": "0",
                "rotational": "1",
                "sas_address": null,
                "sas_device_handle": null,
                "scheduler_mode": "mq-deadline",
                "sectors": "138880",
                "sectorsize": "512",
                "size": "67.81 MB",
                "support_discard": "4096",
                "vendor": null,
                "virtual": 1
            },
            "loop6": {
                "holders": [],
                "host": "",
                "links": {
                    "ids": [],
                    "labels": [],
                    "masters": [],
                    "uuids": []
                },
                "model": null,
                "partitions": {},
                "removable": "0",
                "rotational": "1",
                "sas_address": null,
                "sas_device_handle": null,
                "scheduler_mode": "mq-deadline",
                "sectors": "0",
                "sectorsize": "512",
                "size": "0.00 Bytes",
                "support_discard": "0",
                "vendor": null,
                "virtual": 1
            },
            "loop7": {
                "holders": [],
                "host": "",
                "links": {
                    "ids": [],
                    "labels": [],
                    "masters": [],
                    "uuids": []
                },
                "model": null,
                "partitions": {},
                "removable": "0",
                "rotational": "1",
                "sas_address": null,
                "sas_device_handle": null,
                "scheduler_mode": "mq-deadline",
                "sectors": "0",
                "sectorsize": "512",
                "size": "0.00 Bytes",
                "support_discard": "0",
                "vendor": null,
                "virtual": 1
            },
            "sda": {
                "holders": [],
                "host": "",
                "links": {
                    "ids": [],
                    "labels": [],
                    "masters": [],
                    "uuids": []
                },
                "model": "QEMU HARDDISK",
                "partitions": {
                    "sda1": {
                        "holders": [],
                        "links": {
                            "ids": [],
                            "labels": [],
                            "masters": [],
                            "uuids": []
                        },
                        "sectors": "41715679",
                        "sectorsize": 512,
                        "size": "19.89 GB",
                        "start": "227328",
                        "uuid": null
                    },
                    "sda14": {
                        "holders": [],
                        "links": {
                            "ids": [],
                            "labels": [],
                            "masters": [],
                            "uuids": []
                        },
                        "sectors": "8192",
                        "sectorsize": 512,
                        "size": "4.00 MB",
                        "start": "2048",
                        "uuid": null
                    },
                    "sda15": {
                        "holders": [],
                        "links": {
                            "ids": [],
                            "labels": [],
                            "masters": [],
                            "uuids": []
                        },
                        "sectors": "217088",
                        "sectorsize": 512,
                        "size": "106.00 MB",
                        "start": "10240",
                        "uuid": null
                    }
                },
                "removable": "0",
                "rotational": "1",
                "sas_address": null,
                "sas_device_handle": null,
                "scheduler_mode": "mq-deadline",
                "sectors": "41943040",
                "sectorsize": "512",
                "size": "20.00 GB",
                "support_discard": "512",
                "vendor": "ATA",
                "virtual": 1
            },
            "sr0": {
                "holders": [],
                "host": "",
                "links": {
                    "ids": [],
                    "labels": [],
                    "masters": [],
                    "uuids": []
                },
                "model": "QEMU DVD-ROM",
                "partitions": {},
                "removable": "1",
                "rotational": "1",
                "sas_address": null,
                "sas_device_handle": null,
                "scheduler_mode": "mq-deadline",
                "sectors": "732",
                "sectorsize": "2048",
                "size": "366.00 KB",
                "support_discard": "0",
                "vendor": "QEMU",
                "virtual": 1
            },
            "sr1": {
                "holders": [],
                "host": "",
                "links": {
                    "ids": [],
                    "labels": [],
                    "masters": [],
                    "uuids": []
                },
                "model": "QEMU DVD-ROM",
                "partitions": {},
                "removable": "1",
                "rotational": "1",
                "sas_address": null,
                "sas_device_handle": null,
                "scheduler_mode": "mq-deadline",
                "sectors": "2097151",
                "sectorsize": "512",
                "size": "1024.00 MB",
                "support_discard": "0",
                "vendor": "QEMU",
                "virtual": 1
            }
        },
        "ansible_distribution": "Ubuntu",
        "ansible_distribution_file_parsed": true,
        "ansible_distribution_file_path": "/etc/os-release",
        "ansible_distribution_file_variety": "Debian",
        "ansible_distribution_major_version": "18",
        "ansible_distribution_release": "bionic",
        "ansible_distribution_version": "18.04",
        "ansible_dns": {
            "nameservers": [
                "127.0.0.11"
            ],
            "options": {
                "ndots": "0"
            }
        },
        "ansible_domain": "",
        "ansible_effective_group_id": 1000,
        "ansible_effective_user_id": 1000,
        "ansible_env": {
            "HOME": "/home/bender",
            "LANG": "C.UTF-8",
            "LOGNAME": "bender",
            "MAIL": "/var/mail/bender",
            "PATH": "/usr/local/sbin:/usr/local/bin:/usr/sbin:/usr/bin:/sbin:/bin:/usr/games:/usr/local/games",
            "PWD": "/home/bender",
            "SHELL": "/bin/bash",
            "SHLVL": "1",
            "SSH_CLIENT": "10.10.2.1 41756 22",
            "SSH_CONNECTION": "10.10.2.1 41756 10.10.2.3 22",
            "SSH_TTY": "/dev/pts/0",
            "TERM": "xterm-256color",
            "USER": "bender",
            "_": "/bin/sh"
        },
        "ansible_eth0": {
            "active": true,
            "device": "eth0",
            "ipv4": {
                "address": "10.10.2.3",
                "broadcast": "10.10.2.255",
                "netmask": "255.255.255.0",
                "network": "10.10.2.0"
            },
            "macaddress": "02:42:0a:0a:02:03",
            "mtu": 1450,
            "promisc": false,
            "speed": 10000,
            "type": "ether"
        },
        "ansible_fibre_channel_wwn": [],
        "ansible_fips": false,
        "ansible_form_factor": "Other",
        "ansible_fqdn": "bender",
        "ansible_hostname": "bender",
        "ansible_hostnqn": "",
        "ansible_interfaces": [
            "eth0",
            "lo"
        ],
        "ansible_is_chroot": true,
        "ansible_iscsi_iqn": "",
        "ansible_kernel": "5.4.0-109-generic",
        "ansible_kernel_version": "#123-Ubuntu SMP Fri Apr 8 09:10:54 UTC 2022",
        "ansible_lo": {
            "active": true,
            "device": "lo",
            "ipv4": {
                "address": "127.0.0.1",
                "broadcast": "",
                "netmask": "255.0.0.0",
                "network": "127.0.0.0"
            },
            "mtu": 65536,
            "promisc": false,
            "type": "loopback"
        },
        "ansible_local": {},
        "ansible_lsb": {
            "codename": "bionic",
            "description": "Ubuntu 18.04.4 LTS",
            "id": "Ubuntu",
            "major_release": "18",
            "release": "18.04"
        },
        "ansible_machine": "x86_64",
        "ansible_machine_id": "fcaefe6bd8ab48349613bb1a0e9fd89c",
        "ansible_memfree_mb": 94,
        "ansible_memory_mb": {
            "nocache": {
                "free": 605,
                "used": 371
            },
            "real": {
                "free": 94,
                "total": 976,
                "used": 882
            },
            "swap": {
                "cached": 6,
                "free": 1984,
                "total": 2047,
                "used": 63
            }
        },
        "ansible_memtotal_mb": 976,
        "ansible_mounts": [
            {
                "block_available": 2528190,
                "block_size": 4096,
                "block_total": 5036431,
                "block_used": 2508241,
                "device": "/dev/sda1",
                "fstype": "ext4",
                "inode_available": 2328494,
                "inode_total": 2580480,
                "inode_used": 251986,
                "mount": "/etc/resolv.conf",
                "options": "rw,relatime,bind",
                "size_available": 10355466240,
                "size_total": 20629221376,
                "uuid": "N/A"
            },
            {
                "block_available": 2528190,
                "block_size": 4096,
                "block_total": 5036431,
                "block_used": 2508241,
                "device": "/dev/sda1",
                "fstype": "ext4",
                "inode_available": 2328494,
                "inode_total": 2580480,
                "inode_used": 251986,
                "mount": "/etc/hostname",
                "options": "rw,relatime,bind",
                "size_available": 10355466240,
                "size_total": 20629221376,
                "uuid": "N/A"
            },
            {
                "block_available": 2528190,
                "block_size": 4096,
                "block_total": 5036431,
                "block_used": 2508241,
                "device": "/dev/sda1",
                "fstype": "ext4",
                "inode_available": 2328494,
                "inode_total": 2580480,
                "inode_used": 251986,
                "mount": "/etc/hosts",
                "options": "rw,relatime,bind",
                "size_available": 10355466240,
                "size_total": 20629221376,
                "uuid": "N/A"
            }
        ],
        "ansible_nodename": "bender",
        "ansible_os_family": "Debian",
        "ansible_pkg_mgr": "apt",
        "ansible_proc_cmdline": {
            "BOOT_IMAGE": "/boot/vmlinuz-5.4.0-109-generic",
            "console": [
                "tty1",
                "ttyS0"
            ],
            "ro": true,
            "root": "UUID=b89171ea-1bed-49e0-a6cb-ca7c6195d8b8"
        },
        "ansible_processor": [
            "0",
            "GenuineIntel",
            "Intel(R) Xeon(R) CPU E5-2650 v3 @ 2.30GHz",
            "1",
            "GenuineIntel",
            "Intel(R) Xeon(R) CPU E5-2650 v3 @ 2.30GHz"
        ],
        "ansible_processor_cores": 1,
        "ansible_processor_count": 2,
        "ansible_processor_nproc": 2,
        "ansible_processor_threads_per_core": 1,
        "ansible_processor_vcpus": 2,
        "ansible_product_name": "Standard PC (i440FX + PIIX, 1996)",
        "ansible_product_serial": "NA",
        "ansible_product_uuid": "NA",
        "ansible_product_version": "pc-i440fx-focal",
        "ansible_python": {
            "executable": "/usr/bin/python3",
            "has_sslcontext": true,
            "type": "cpython",
            "version": {
                "major": 3,
                "micro": 9,
                "minor": 6,
                "releaselevel": "final",
                "serial": 0
            },
            "version_info": [
                3,
                6,
                9,
                "final",
                0
            ]
        },
        "ansible_python_version": "3.6.9",
        "ansible_real_group_id": 1000,
        "ansible_real_user_id": 1000,
        "ansible_selinux": {
            "status": "disabled"
        },
        "ansible_selinux_python_present": true,
        "ansible_service_mgr": "sshd",
        "ansible_ssh_host_key_ecdsa_public": "AAAAE2VjZHNhLXNoYTItbmlzdHAyNTYAAAAIbmlzdHAyNTYAAABBBP5a8Fo49I5KpAtpSbfxGQ9hW8X06dleA2ycDfoBdfCYxLXq+E1hR1jRM8Z1ZTeIDEMWi7UXVV10QZPVRbxUgTA=",
        "ansible_ssh_host_key_ecdsa_public_keytype": "ecdsa-sha2-nistp256",
        "ansible_ssh_host_key_ed25519_public": "AAAAC3NzaC1lZDI1NTE5AAAAIJZq6P/uRl49aMjNnOcYdGPYw6s6HhyFu9HfVk9pYVNg",
        "ansible_ssh_host_key_ed25519_public_keytype": "ssh-ed25519",
        "ansible_ssh_host_key_rsa_public": "AAAAB3NzaC1yc2EAAAADAQABAAABAQDVZaszGVYHvLofzz+hp7r4QsV5nyurDa2KStuZoSvw10FmUqE0YSHJK4upv/dCrgFAnWFEjklcgkbQ+W1pH3C6rl8zut3nALBiUjnGhwQT1E4LvDWjCt1QNQpsf0ZVUi/njcVzsiXXwCKkaNlkj8jNUD2PoaADER5Q16OMIcLCkvBwBRE2QgmlTjf80WqZ50BvMrbu9oz03UrwA1BgnauA1gwQKpifope5WpYbpYZLV0DVQ/KmwsG+7TeN+77u5jAaZoL76JCP7eqQK/k16EHP0YIO1M/oSzaU25AB61OWw994jjP+C+3jcWhAre/0ZEyI6GqmwLVbzMNMwu5wCn77",
        "ansible_ssh_host_key_rsa_public_keytype": "ssh-rsa",
        "ansible_swapfree_mb": 1984,
        "ansible_swaptotal_mb": 2047,
        "ansible_system": "Linux",
        "ansible_system_vendor": "QEMU",
        "ansible_uptime_seconds": 26810,
        "ansible_user_dir": "/home/bender",
        "ansible_user_gecos": "",
        "ansible_user_gid": 1000,
        "ansible_user_id": "bender",
        "ansible_user_shell": "/bin/bash",
        "ansible_user_uid": 1000,
        "ansible_userspace_architecture": "x86_64",
        "ansible_userspace_bits": "64",
        "ansible_virtualization_role": "guest",
        "ansible_virtualization_tech_guest": [
            "container",
            "containerd",
            "docker",
            "kvm"
        ],
        "ansible_virtualization_tech_host": [
            "kvm"
        ],
        "ansible_virtualization_type": "docker",
        "gather_subset": [
            "all"
        ],
        "module_setup": true
    },
    "changed": false
}
